// Jest Snapshot v1, https://goo.gl/fbAQLP

exports[`Testing GenreCheckBoxes component renders as expected 1`] = `
<li>
  <span>
    first
  </span>
  <input
    name="vehicle1"
    onChange={[Function]}
    type="checkbox"
    value="Bike"
  />
</li>
`;
