// Jest Snapshot v1, https://goo.gl/fbAQLP

exports[`Testing topBar component renders as expected 1`] = `
<header>
  <div
    id="inner"
  >
    <StandardButton
      onClick={[Function]}
      text="Load more"
    />
    <h1>
      Some Movies
    </h1>
    <StandardButton
      text="Hide Filters"
    />
  </div>
</header>
`;
